{
    "https://0b1gqpultb.execute-api.eu-central-1.amazonaws.com/Prod/Publisher": {
      "target": "",
      "secure": true,
      "changeOrigin": true,
      "pathRewrite": {
        "^/api": ""
      }
    }
  }